{
 "object": "list",
 "page": 1,
 "limit": 2,
 "has_more": true,
 "total_count": 6,
 "data": [
  {
   "_id": "6a360ab91d92d5d3cb02d69b",
   "namespace": "thesaunaguys",
   "branch_id": "654e7d37c8a12ada310de13a",
   "program_id": "66421c02f59eba9ee50cca11",
   "active": true,
   "name": "<REDACTED:3b9ab774>",
   "description": "Experience the freedom of our Open Sauna option! Book an hour-long time slot and enjoy unrestricted access to our sauna and cold plunge\u2014linger as long as you like, take breaks, and relax on your terms. No class leader, just you and the soothing benefits of Nordic sauna therapy. Remember to bring a towel and water bottle!",
   "time_start": 1784379600,
   "level": "All Levels",
   "size": 12,
   "facility": "654e7d3dc8a12ada310de141",
   "trainers": [
    "69a46e379382b7401708b953"
   ],
   "private": false,
   "booked": 1,
   "waiting": 0,
   "has_booked": false,
   "booking_status": null,
   "duration": 60,
   "type": "event",
   "program_obj": null,
   "trainers_obj": [],
   "facility_obj": null,
   "image_url": "<REDACTED:dd7932d0>",
   "position": null,
   "open_booking_time": null,
   "close_booking_time": 1784379600,
   "session_id": null,
   "status": "AVAILABLE",
   "booking_id": null,
   "current_user_eligibility": "UNKNOWN",
   "model": null,
   "model_id": null,
   "is_online": false,
   "modified": 1784231579
  },
  {
   "_id": "6a360ab91d92d5d3cb02d69c",
   "namespace": "thesaunaguys",
   "branch_id": "654e7d37c8a12ada310de13a",
   "program_id": "66421c02f59eba9ee50cca11",
   "active": true,
   "name": "<REDACTED:3b9ab774>",
   "description": "Experience the freedom of our Open Sauna option! Book an hour-long time slot and enjoy unrestricted access to our sauna and cold plunge\u2014linger as long as you like, take breaks, and relax on your terms. No class leader, just you and the soothing benefits of Nordic sauna therapy. Remember to bring a towel and water bottle!",
   "time_start": 1784383200,
   "level": "All Levels",
   "size": 12,
   "facility": "654e7d3dc8a12ada310de141",
   "trainers": [
    "69a46e379382b7401708b953"
   ],
   "private": false,
   "booked": 0,
   "waiting": 0,
   "has_booked": false,
   "booking_status": null,
   "duration": 60,
   "type": "event",
   "program_obj": null,
   "trainers_obj": [],
   "facility_obj": null,
   "image_url": "<REDACTED:33129c34>",
   "position": null,
   "open_booking_time": null,
   "close_booking_time": 1784383200,
   "session_id": null,
   "status": "AVAILABLE",
   "booking_id": null,
   "current_user_eligibility": "UNKNOWN",
   "model": null,
   "model_id": null,
   "is_online": false,
   "modified": 1781926585
  }
 ]
}